build/enc-par/build-2019-11-02_17-13/mpadd.vcd
$date
    Nov  2, 2019  17:10:47
$end
$version
    TOOL:	xmsim	19.03-s013
$end
$timescale
    10 ps
$end

$scope module mpadd_tb $end

$scope module u_DUT $end
$var wire      1 !    CLK  $end
$var wire      1 "    RST_N  $end
$var wire     256 #    a_in [255:0] $end
$var wire     256 $    b_in [255:0] $end
$var wire      1 %    write  $end
$var wire      1 &    start  $end
$var wire     257 '    s_out [256:0] $end
$var reg       1 (    ready $end
$var reg      256 )    a [255:0] $end
$var reg      256 *    b [255:0] $end
$var reg      32 +    a0 [31:0] $end
$var reg      32 ,    a1 [31:0] $end
$var reg      32 -    a2 [31:0] $end
$var reg      32 .    a3 [31:0] $end
$var reg      32 /    a4 [31:0] $end
$var reg      32 0    a5 [31:0] $end
$var reg      32 1    a6 [31:0] $end
$var reg      32 2    a7 [31:0] $end
$var reg      32 3    b0 [31:0] $end
$var reg      32 4    b1 [31:0] $end
$var reg      32 5    b2 [31:0] $end
$var reg      32 6    b3 [31:0] $end
$var reg      32 7    b4 [31:0] $end
$var reg      32 8    b5 [31:0] $end
$var reg      32 9    b6 [31:0] $end
$var reg      32 :    b7 [31:0] $end
$var reg      32 ;    s0 [31:0] $end
$var reg      32 <    s1 [31:0] $end
$var reg      32 =    s2 [31:0] $end
$var reg      32 >    s3 [31:0] $end
$var reg      32 ?    s4 [31:0] $end
$var reg      32 @    s5 [31:0] $end
$var reg      32 A    s6 [31:0] $end
$var reg      33 B    s7 [32:0] $end
$var reg       3 C    counter [2:0] $end
$var reg       1 D    carry $end
$upscope $end

$upscope $end

$enddefinitions $end
$dumpvars
0!
0"
bx #
bx $
0%
0&
bx '
x(
bx )
bx *
bx +
bx ,
bx -
bx .
bx /
bx 0
bx 1
bx 2
bx 3
bx 4
bx 5
bx 6
bx 7
bx 8
bx 9
bx :
bx ;
bx <
bx =
bx >
bx ?
bx @
bx A
bx B
bx C
xD
$end
#5000
1!
0(
b0 C
0D
b110101100010111110100011111001011100001001011000100001001000111111110001011110011100110111001010110001110100100010000001111001001110111000000110111110110000001001011011110101100110011101000001111010010100001001110010100010111011000100110001100001010010110 #
b100111111100011010000101110001011111110000110100111111110011011100011101110011111101011010010100111110000001111100111100001011000101011110011100011001101010111011010110011000101011110110011101100101110110110010000000110100000110111101111110101000111110101 $
#10000
0!
1"
#15000
1!
#20000
0!
#25000
1!
b11010110001011111010001111100101110000100101100010000100100011111111000101111001110011011100101011000111010010001000000111100100111011100000011011111011000000100101101111010110011001110100000111101001010000100111001010001011101100010011000110000101001011 #
b1111010111100001101000010111000101111111000011010011111111001101110001110111001111110101101001010011111000000111110011110000101100010101111001110001100110101011101101011001100010101111011001110110010111011011001000000011010000011011110111111010100011111010 $
1%
#30000
0!
#35000
1!
b11101100010011000110000101001011 +
b1111010010100001001110010100010 ,
b10010110111101011001100111010000 -
b111011100000011011111011000000 .
b10110001110100100010000001111001 /
b11111100010111100111001101110010 0
b1110000100101100010000100100011 1
b110101100010111110100011111001 2
b11011110111111010100011111010 3
b1100101110110110010000000110100 4
b10110101100110001010111101100111 5
b10101111001110001100110101011 6
b111110000001111100111100001011 7
b11000111011100111111010110100101 8
b1111111000011010011111111001101 9
b11110101111000011010000101110001 :
0%
1&
#40000
0!
#45000
1!
b1000001011000000101001000101 ;
1D
b1 C
bx00001000001011000000101001000101 '
0&
#50000
0!
#55000
1!
b11100000001010111011110011010111 <
0D
b10 C
bx1110000000101011101111001101011100001000001011000000101001000101 '
#60000
0!
#65000
1!
b1001100100011100100100100110111 =
1D
b11 C
bx010011001000111001001001001101111110000000101011101111001101011100001000001011000000101001000101 '
#70000
0!
#75000
1!
b1010001011010001101100001101100 >
0D
b100 C
bx01010001011010001101100001101100010011001000111001001001001101111110000000101011101111001101011100001000001011000000101001000101 '
#80000
0!
#85000
1!
b11101111110110011110111110000100 ?
b101 C
bx1110111111011001111011111000010001010001011010001101100001101100010011001000111001001001001101111110000000101011101111001101011100001000001011000000101001000101 '
#90000
0!
#95000
1!
b11000011110100100110100100010111 @
1D
b110 C
bx110000111101001001101001000101111110111111011001111011111000010001010001011010001101100001101100010011001000111001001001001101111110000000101011101111001101011100001000001011000000101001000101 '
#100000
0!
#105000
1!
b11101111101000110110000011110001 A
0D
b111 C
bx11101111101000110110000011110001110000111101001001101001000101111110111111011001111011111000010001010001011010001101100001101100010011001000111001001001001101111110000000101011101111001101011100001000001011000000101001000101 '
#110000
0!
#115000
1!
b100101011011011011000101001101010 B
b0 C
1(
b10010101101101101100010100110101011101111101000110110000011110001110000111101001001101001000101111110111111011001111011111000010001010001011010001101100001101100010011001000111001001001001101111110000000101011101111001101011100001000001011000000101001000101 '
#120000
0!
#125000
1!
0(
#130000
0!
#135000
1!
b1100100011010101111101000111110010111000010010110001000010010001111111100010111100111001101110010101100011101001000100000011110010011101110000001101111101100000010010110111101011001100111010000011110100101000010011100101000101110110001001100011000010100101 #
b111101011110000110100001011100010111111100001101001111111100110111000111011100111111010110100101001111100000011111001111000010110001010111100111000110011010101110110101100110001010111101100111011001011101101100100000001101000001101111011111101010001111101 $
1%
#140000
0!
#145000
1!
b1110110001001100011000010100101 +
b111101001010000100111001010001 ,
b1001011011110101100110011101000 -
b10011101110000001101111101100000 .
b1011000111010010001000000111100 /
b11111110001011110011100110111001 0
b10111000010010110001000010010001 1
b11001000110101011111010001111100 2
b1101111011111101010001111101 3
b10110010111011011001000000011010 4
b11011010110011000101011110110011 5
b10001010111100111000110011010101 6
b10011111000000111110011110000101 7
b11100011101110011111101011010010 8
b10111111100001101001111111100110 9
b1111010111100001101000010111000 :
0%
1&
#150000
0!
#155000
1!
b10000100000101100000010100100010 ;
b1 C
b10010101101101101100010100110101011101111101000110110000011110001110000111101001001101001000101111110111111011001111011111000010001010001011010001101100001101100010011001000111001001001001101111110000000101011101111001101011110000100000101100000010100100010 '
0&
#160000
0!
#165000
1!
b11110000000101011101111001101011 <
b10 C
b10010101101101101100010100110101011101111101000110110000011110001110000111101001001101001000101111110111111011001111011111000010001010001011010001101100001101100010011001000111001001001001101111111000000010101110111100110101110000100000101100000010100100010 '
#170000
0!
#175000
1!
b100110010001110010010010011011 =
1D
b11 C
b10010101101101101100010100110101011101111101000110110000011110001110000111101001001101001000101111110111111011001111011111000010001010001011010001101100001101100001001100100011100100100100110111111000000010101110111100110101110000100000101100000010100100010 '
#180000
0!
#185000
1!
b101000101101000110110000110110 >
b100 C
b10010101101101101100010100110101011101111101000110110000011110001110000111101001001101001000101111110111111011001111011111000010000101000101101000110110000110110001001100100011100100100100110111111000000010101110111100110101110000100000101100000010100100010 '
#190000
0!
#195000
1!
b11110111111011001111011111000010 ?
0D
b101 C
b10010101101101101100010100110101011101111101000110110000011110001110000111101001001101001000101111111011111101100111101111100001000101000101101000110110000110110001001100100011100100100100110111111000000010101110111100110101110000100000101100000010100100010 '
#200000
0!
#205000
1!
b11100001111010010011010010001011 @
1D
b110 C
b10010101101101101100010100110101011101111101000110110000011110001111000011110100100110100100010111111011111101100111101111100001000101000101101000110110000110110001001100100011100100100100110111111000000010101110111100110101110000100000101100000010100100010 '
#210000
0!
#215000
1!
b1110111110100011011000001111000 A
b111 C
b10010101101101101100010100110101001110111110100011011000001111000111000011110100100110100100010111111011111101100111101111100001000101000101101000110110000110110001001100100011100100100100110111111000000010101110111100110101110000100000101100000010100100010 '
#220000
0!
#225000
1!
b101000011110001101100010100110101 B
b0 C
1(
b10100001111000110110001010011010101110111110100011011000001111000111000011110100100110100100010111111011111101100111101111100001000101000101101000110110000110110001001100100011100100100100110111111000000010101110111100110101110000100000101100000010100100010 '
#230000
0!
#235000
1!
0(
#240000
0!
#245000
1!
b1011011001111010111110100011111001011100001001011000100001001000111111110001011110011100110111001010110001110100100010000001111001001110111000000110111110110000001001011011110101100110011101000001111010010100001001110010100010111011000100110001100001010010 #
b1110111101101000011010000101110001011111110000110100111111110011011100011101110011111101011010010100111110000001111100111100001011000101011110011100011001101010111011010110011000101011110110011101100101110110110010000000110100000110111101111110101000111110 $
1%
#250000
0!
#255000
1!
b10111011000100110001100001010010 +
b11110100101000010011100101000 ,
b100101101111010110011001110100 -
b1001110111000000110111110110000 .
b10101100011101001000100000011110 /
b11111111000101111001110011011100 0
b1011100001001011000100001001000 1
b10110110011110101111101000111110 2
b110111101111110101000111110 3
b11011001011101101100100000001101 4
b11101101011001100010101111011001 5
b11000101011110011100011001101010 6
b1001111100000011111001111000010 7
b1110001110111001111110101101001 8
b1011111110000110100111111110011 9
b11101111011010000110100001011100 :
0D
0%
1&
#260000
0!
#265000
1!
b11000010000010110000001010010000 ;
b1 C
b10100001111000110110001010011010101110111110100011011000001111000111000011110100100110100100010111111011111101100111101111100001000101000101101000110110000110110001001100100011100100100100110111111000000010101110111100110101111000010000010110000001010010000 '
0&
#270000
0!
#275000
1!
b11111000000010101110111100110101 <
b10 C
b10100001111000110110001010011010101110111110100011011000001111000111000011110100100110100100010111111011111101100111101111100001000101000101101000110110000110110001001100100011100100100100110111111100000001010111011110011010111000010000010110000001010010000 '
#280000
0!
#285000
1!
b10011001000111001001001001101 =
1D
b11 C
b10100001111000110110001010011010101110111110100011011000001111000111000011110100100110100100010111111011111101100111101111100001000101000101101000110110000110110000100110010001110010010010011011111100000001010111011110011010111000010000010110000001010010000 '
#290000
0!
#295000
1!
b10100010110100011011000011011 >
b100 C
b10100001111000110110001010011010101110111110100011011000001111000111000011110100100110100100010111111011111101100111101111100001000010100010110100011011000011011000100110010001110010010010011011111100000001010111011110011010111000010000010110000001010010000 '
#300000
0!
#305000
1!
b11111011111101100111101111100001 ?
0D
b101 C
b10100001111000110110001010011010101110111110100011011000001111000111000011110100100110100100010111111101111110110011110111110000100010100010110100011011000011011000100110010001110010010010011011111100000001010111011110011010111000010000010110000001010010000 '
#310000
0!
#315000
1!
b1110000111101001001101001000101 @
1D
b110 C
b10100001111000110110001010011010101110111110100011011000001111000011100001111010010011010010001011111101111110110011110111110000100010100010110100011011000011011000100110010001110010010010011011111100000001010111011110011010111000010000010110000001010010000 '
#320000
0!
#325000
1!
b10111011111010001101100000111100 A
0D
b111 C
b10100001111000110110001010011010110111011111010001101100000111100011100001111010010011010010001011111101111110110011110111110000100010100010110100011011000011011000100110010001110010010010011011111100000001010111011110011010111000010000010110000001010010000 '
#330000
0!
#335000
1!
b110100101111000110110001010011010 B
b0 C
1(
b11010010111100011011000101001101010111011111010001101100000111100011100001111010010011010010001011111101111110110011110111110000100010100010110100011011000011011000100110010001110010010010011011111100000001010111011110011010111000010000010110000001010010000 '
#340000
0!
#345000
1!
0(
#350000
0!
#355000
1!
b101101100111101011111010001111100101110000100101100010000100100011111111000101111001110011011100101011000111010010001000000111100100111011100000011011111011000000100101101111010110011001110100000111101001010000100111001010001011101100010011000110000101001 #
b111011110110100001101000010111000101111111000011010011111111001101110001110111001111110101101001010011111000000111110011110000101100010101111001110001100110101011101101011001100010101111011001110110010111011011001000000011010000011011110111111010100011111 $
1%
#360000
0!
#365000
1!
b1011101100010011000110000101001 +
b1111010010100001001110010100 ,
b10010110111101011001100111010 -
b100111011100000011011111011000 .
b1010110001110100100010000001111 /
b1111111100010111100111001101110 0
b101110000100101100010000100100 1
b1011011001111010111110100011111 2
b10000011011110111111010100011111 3
b11101100101110110110010000000110 4
b1110110101100110001010111101100 5
b1100010101111001110001100110101 6
b10100111110000001111100111100001 7
b10111000111011100111111010110100 8
b101111111000011010011111111001 9
b1110111101101000011010000101110 :
0%
1&
#370000
0!
#375000
1!
b11100001000001011000000101001000 ;
b1 C
b11010010111100011011000101001101010111011111010001101100000111100011100001111010010011010010001011111101111110110011110111110000100010100010110100011011000011011000100110010001110010010010011011111100000001010111011110011010111100001000001011000000101001000 '
0&
#380000
0!
#385000
1!
b11111100000001010111011110011010 <
b10 C
b11010010111100011011000101001101010111011111010001101100000111100011100001111010010011010010001011111101111110110011110111110000100010100010110100011011000011011000100110010001110010010010011011111110000000101011101111001101011100001000001011000000101001000 '
#390000
0!
#395000
1!
b10001001100100011100100100100110 =
b11 C
b11010010111100011011000101001101010111011111010001101100000111100011100001111010010011010010001011111101111110110011110111110000100010100010110100011011000011011100010011001000111001001001001101111110000000101011101111001101011100001000001011000000101001000 '
#400000
0!
#405000
1!
b10001010001011010001101100001101 >
b100 C
b11010010111100011011000101001101010111011111010001101100000111100011100001111010010011010010001011111101111110110011110111110000110001010001011010001101100001101100010011001000111001001001001101111110000000101011101111001101011100001000001011000000101001000 '
#410000
0!
#415000
1!
b11111101111110110011110111110000 ?
b101 C
b11010010111100011011000101001101010111011111010001101100000111100011100001111010010011010010001011111110111111011001111011111000010001010001011010001101100001101100010011001000111001001001001101111110000000101011101111001101011100001000001011000000101001000 '
#420000
0!
#425000
1!
b111000011110100100110100100010 @
1D
b110 C
b11010010111100011011000101001101010111011111010001101100000111100001110000111101001001101001000101111110111111011001111011111000010001010001011010001101100001101100010011001000111001001001001101111110000000101011101111001101011100001000001011000000101001000 '
#430000
0!
#435000
1!
b1011101111101000110110000011110 A
0D
b111 C
b11010010111100011011000101001101001011101111101000110110000011110001110000111101001001101001000101111110111111011001111011111000010001010001011010001101100001101100010011001000111001001001001101111110000000101011101111001101011100001000001011000000101001000 '
#440000
0!
#445000
1!
b11010010111100011011000101001101 B
b0 C
1(
b1101001011110001101100010100110101011101111101000110110000011110001110000111101001001101001000101111110111111011001111011111000010001010001011010001101100001101100010011001000111001001001001101111110000000101011101111001101011100001000001011000000101001000 '
#450000
0!
#455000
1!
0(
#460000
0!
#465000
1!
b1111111110001110101111101000111110010111000010010110001000010010001111111100010111100111001101110010101100011101001000100000011110010011101110000001101111101100000010010110111101011001100111010000011110100101000010011100101000101110110001001100011000010100 #
b1110100111001010000110100001011100010111111100001101001111111100110111000111011100111111010110100101001111100000011111001111000010110001010111100111000110011010101110110101100110001010111101100111011001011101101100100000001101000001101111011111101010001111 $
1%
#470000
0!
#475000
1!
b101110110001001100011000010100 +
b111101001010000100111001010 ,
b1001011011110101100110011101 -
b10010011101110000001101111101100 .
b101011000111010010001000000111 /
b111111110001011110011100110111 0
b10010111000010010110001000010010 1
b11111111100011101011111010001111 2
b1000001101111011111101010001111 3
b1110110010111011011001000000011 4
b10111011010110011000101011110110 5
b10110001010111100111000110011010 6
b1010011111000000111110011110000 7
b11011100011101110011111101011010 8
b10111111100001101001111111100 9
b11101001110010100001101000010111 :
0%
1&
#480000
0!
#485000
1!
b1110000100000101100000010100011 ;
b1 C
b1101001011110001101100010100110101011101111101000110110000011110001110000111101001001101001000101111110111111011001111011111000010001010001011010001101100001101100010011001000111001001001001101111110000000101011101111001101001110000100000101100000010100011 '
0&
#490000
0!
#495000
1!
b1111110000000101011101111001101 <
b10 C
b1101001011110001101100010100110101011101111101000110110000011110001110000111101001001101001000101111110111111011001111011111000010001010001011010001101100001101100010011001000111001001001001100111111000000010101110111100110101110000100000101100000010100011 '
#500000
0!
#505000
1!
b11000100110010001110010010010011 =
b11 C
b1101001011110001101100010100110101011101111101000110110000011110001110000111101001001101001000101111110111111011001111011111000010001010001011010001101100001101110001001100100011100100100100110111111000000010101110111100110101110000100000101100000010100011 '
#510000
0!
#515000
1!
b1000101000101101000110110000110 >
1D
b100 C
b1101001011110001101100010100110101011101111101000110110000011110001110000111101001001101001000101111110111111011001111011111000001000101000101101000110110000110110001001100100011100100100100110111111000000010101110111100110101110000100000101100000010100011 '
#520000
0!
#525000
1!
b1111110111111011001111011111000 ?
0D
b101 C
b1101001011110001101100010100110101011101111101000110110000011110001110000111101001001101001000100111111011111101100111101111100001000101000101101000110110000110110001001100100011100100100100110111111000000010101110111100110101110000100000101100000010100011 '
#530000
0!
#535000
1!
b11100001111010010011010010001 @
1D
b110 C
b1101001011110001101100010100110101011101111101000110110000011110000111000011110100100110100100010111111011111101100111101111100001000101000101101000110110000110110001001100100011100100100100110111111000000010101110111100110101110000100000101100000010100011 '
#540000
0!
#545000
1!
b10101110111110100011011000001111 A
0D
b111 C
b1101001011110001101100010100110110101110111110100011011000001111000111000011110100100110100100010111111011111101100111101111100001000101000101101000110110000110110001001100100011100100100100110111111000000010101110111100110101110000100000101100000010100011 '
#550000
0!
#555000
1!
b111101001010110001101100010100110 B
b0 C
1(
b11110100101011000110110001010011010101110111110100011011000001111000111000011110100100110100100010111111011111101100111101111100001000101000101101000110110000110110001001100100011100100100100110111111000000010101110111100110101110000100000101100000010100011 '
#560000
0!
#565000
1!
0(
#570000
0!
#575000
1!
b111111111000111010111110100011111001011100001001011000100001001000111111110001011110011100110111001010110001110100100010000001111001001110111000000110111110110000001001011011110101100110011101000001111010010100001001110010100010111011000100110001100001010 #
b1010011011110101000011010000101110001011111110000110100111111110011011100011101110011111101011010010100111110000001111100111100001011000101011110011100011001101010111011010110011000101011110110011101100101110110110010000000110100000110111101111110101000111 $
1%
#580000
0!
#585000
1!
b10111011000100110001100001010 +
b10000011110100101000010011100101 ,
b100101101111010110011001110 -
b11001001110111000000110111110110 .
b10010101100011101001000100000011 /
b11111111000101111001110011011 0
b11001011100001001011000100001001 1
b1111111110001110101111101000111 2
b10100000110111101111110101000111 3
b111011001011101101100100000001 4
b1011101101011001100010101111011 5
b1011000101011110011100011001101 6
b101001111100000011111001111000 7
b1101110001110111001111110101101 8
b10001011111110000110100111111110 9
b10100110111101010000110100001011 :
0%
1&
#590000
0!
#595000
1!
b10111000010000010110000001010001 ;
b1 C
b11110100101011000110110001010011010101110111110100011011000001111000111000011110100100110100100010111111011111101100111101111100001000101000101101000110110000110110001001100100011100100100100110111111000000010101110111100110110111000010000010110000001010001 '
0&
#600000
0!
#605000
1!
b10111111000000010101110111100110 <
b10 C
b11110100101011000110110001010011010101110111110100011011000001111000111000011110100100110100100010111111011111101100111101111100001000101000101101000110110000110110001001100100011100100100100111011111100000001010111011110011010111000010000010110000001010001 '
#610000
0!
#615000
1!
b1100010011001000111001001001001 =
b11 C
b11110100101011000110110001010011010101110111110100011011000001111000111000011110100100110100100010111111011111101100111101111100001000101000101101000110110000110011000100110010001110010010010011011111100000001010111011110011010111000010000010110000001010001 '
#620000
0!
#625000
1!
b100010100010110100011011000011 >
1D
b100 C
b11110100101011000110110001010011010101110111110100011011000001111000111000011110100100110100100010111111011111101100111101111100000100010100010110100011011000011011000100110010001110010010010011011111100000001010111011110011010111000010000010110000001010001 '
#630000
0!
#635000
1!
b10111111011111101100111101111100 ?
0D
b101 C
b11110100101011000110110001010011010101110111110100011011000001111000111000011110100100110100100011011111101111110110011110111110000100010100010110100011011000011011000100110010001110010010010011011111100000001010111011110011010111000010000010110000001010001 '
#640000
0!
#645000
1!
b10001110000111101001001101001000 @
b110 C
b11110100101011000110110001010011010101110111110100011011000001111100011100001111010010011010010001011111101111110110011110111110000100010100010110100011011000011011000100110010001110010010010011011111100000001010111011110011010111000010000010110000001010001 '
#650000
0!
#655000
1!
b1010111011111010001101100000111 A
1D
b111 C
b11110100101011000110110001010011001010111011111010001101100000111100011100001111010010011010010001011111101111110110011110111110000100010100010110100011011000011011000100110010001110010010010011011111100000001010111011110011010111000010000010110000001010001 '
#660000
0!
#665000
1!
b100100110101111000110110001010011 B
b0 C
1(
b10010011010111100011011000101001101010111011111010001101100000111100011100001111010010011010010001011111101111110110011110111110000100010100010110100011011000011011000100110010001110010010010011011111100000001010111011110011010111000010000010110000001010001 '
#670000
0!
#675000
1!
0(
#680000
0!
#685000
1!
b11111111100011101011111010001111100101110000100101100010000100100011111111000101111001110011011100101011000111010010001000000111100100111011100000011011111011000000100101101111010110011001110100000111101001010000100111001010001011101100010011000110000101 #
b1000000101101010100001101000010111000101111111000011010011111111001101110001110111001111110101101001010011111000000111110011110000101100010101111001110001100110101011101101011001100010101111011001110110010111011011001000000011010000011011110111111010100011 $
1%
#690000
0!
#695000
1!
b10001011101100010011000110000101 +
b1000001111010010100001001110010 ,
b10010110111101011001100111 -
b11100100111011100000011011111011 .
b11001010110001110100100010000001 /
b10001111111100010111100111001101 0
b11100101110000100101100010000100 1
b111111111000111010111110100011 2
b11010000011011110111111010100011 3
b10011101100101110110110010000000 4
b10101110110101100110001010111101 5
b101100010101111001110001100110 6
b10010100111110000001111100111100 7
b110111000111011100111111010110 8
b11000101111111000011010011111111 9
b10000001011010101000011010000101 :
0D
0%
1&
#700000
0!
#705000
1!
b1011100001000001011000000101000 ;
1D
b1 C
b10010011010111100011011000101001101010111011111010001101100000111100011100001111010010011010010001011111101111110110011110111110000100010100010110100011011000011011000100110010001110010010010011011111100000001010111011110011001011100001000001011000000101000 '
0&
#710000
0!
#715000
1!
b11011111100000001010111011110011 <
0D
b10 C
b10010011010111100011011000101001101010111011111010001101100000111100011100001111010010011010010001011111101111110110011110111110000100010100010110100011011000011011000100110010001110010010010011101111110000000101011101111001101011100001000001011000000101000 '
#720000
0!
#725000
1!
b10110001001100100011100100100100 =
b11 C
b10010011010111100011011000101001101010111011111010001101100000111100011100001111010010011010010001011111101111110110011110111110000100010100010110100011011000011101100010011001000111001001001001101111110000000101011101111001101011100001000001011000000101000 '
#730000
0!
#735000
1!
b10001010001011010001101100001 >
1D
b100 C
b10010011010111100011011000101001101010111011111010001101100000111100011100001111010010011010010001011111101111110110011110111110000010001010001011010001101100001101100010011001000111001001001001101111110000000101011101111001101011100001000001011000000101000 '
#740000
0!
#745000
1!
b1011111101111110110011110111110 ?
b101 C
b10010011010111100011011000101001101010111011111010001101100000111100011100001111010010011010010000101111110111111011001111011111000010001010001011010001101100001101100010011001000111001001001001101111110000000101011101111001101011100001000001011000000101000 '
#750000
0!
#755000
1!
b11000111000011110100100110100100 @
0D
b110 C
b10010011010111100011011000101001101010111011111010001101100000111110001110000111101001001101001000101111110111111011001111011111000010001010001011010001101100001101100010011001000111001001001001101111110000000101011101111001101011100001000001011000000101000 '
#760000
0!
#765000
1!
b10101011101111101000110110000011 A
1D
b111 C
b10010011010111100011011000101001110101011101111101000110110000011110001110000111101001001101001000101111110111111011001111011111000010001010001011010001101100001101100010011001000111001001001001101111110000000101011101111001101011100001000001011000000101000 '
#770000
0!
#775000
1!
b11000001010011100011011000101001 B
b0 C
1(
b1100000101001110001101100010100110101011101111101000110110000011110001110000111101001001101001000101111110111111011001111011111000010001010001011010001101100001101100010011001000111001001001001101111110000000101011101111001101011100001000001011000000101000 '
#780000
0!
#785000
1!
0(
#790000
0!
#795000
1!
b1100110111100001110101111101000111110010111000010010110001000010010001111111100010111100111001101110010101100011101001000100000011110010011101110000001101111101100000010010110111101011001100111010000011110100101000010011100101000101110110001001100011000010 #
b1001001010100101010000110100001011100010111111100001101001111111100110111000111011100111111010110100101001111100000011111001111000010110001010111100111000110011010101110110101100110001010111101100111011001011101101100100000001101000001101111011111101010001 $
1%
#800000
0!
#805000
1!
b1000101110110001001100011000010 +
b10100000111101001010000100111001 ,
b10000001001011011110101100110011 -
b11110010011101110000001101111101 .
b11100101011000111010010001000000 /
b1000111111110001011110011100110 0
b11110010111000010010110001000010 1
b11001101111000011101011111010001 2
b1101000001101111011111101010001 3
b11001110110010111011011001000000 4
b1010111011010110011000101011110 5
b10110001010111100111000110011 6
b1001010011111000000111110011110 7
b10011011100011101110011111101011 8
b11100010111111100001101001111111 9
b10010010101001010100001101000010 :
0D
0%
1&
#810000
0!
#815000
1!
b10101110000100000101100000010011 ;
b1 C
b1100000101001110001101100010100110101011101111101000110110000011110001110000111101001001101001000101111110111111011001111011111000010001010001011010001101100001101100010011001000111001001001001101111110000000101011101111001110101110000100000101100000010011 '
0&
#820000
0!
#825000
1!
b1101111110000000101011101111001 <
1D
b10 C
b1100000101001110001101100010100110101011101111101000110110000011110001110000111101001001101001000101111110111111011001111011111000010001010001011010001101100001101100010011001000111001001001000110111111000000010101110111100110101110000100000101100000010011 '
#830000
0!
#835000
1!
b11011000100110010001110010010010 =
0D
b11 C
b1100000101001110001101100010100110101011101111101000110110000011110001110000111101001001101001000101111110111111011001111011111000010001010001011010001101100001110110001001100100011100100100100110111111000000010101110111100110101110000100000101100000010011 '
#840000
0!
#845000
1!
b1000101000101101000110110000 >
1D
b100 C
b1100000101001110001101100010100110101011101111101000110110000011110001110000111101001001101001000101111110111111011001111011111000001000101000101101000110110000110110001001100100011100100100100110111111000000010101110111100110101110000100000101100000010011 '
#850000
0!
#855000
1!
b101111110111111011001111011111 ?
b101 C
b1100000101001110001101100010100110101011101111101000110110000011110001110000111101001001101001000010111111011111101100111101111100001000101000101101000110110000110110001001100100011100100100100110111111000000010101110111100110101110000100000101100000010011 '
#860000
0!
#865000
1!
b11100011100001111010010011010010 @
0D
b110 C
b1100000101001110001101100010100110101011101111101000110110000011111000111000011110100100110100100010111111011111101100111101111100001000101000101101000110110000110110001001100100011100100100100110111111000000010101110111100110101110000100000101100000010011 '
#870000
0!
#875000
1!
b11010101110111110100011011000001 A
1D
b111 C
b1100000101001110001101100010100111010101110111110100011011000001111000111000011110100100110100100010111111011111101100111101111100001000101000101101000110110000110110001001100100011100100100100110111111000000010101110111100110101110000100000101100000010011 '
#880000
0!
#885000
1!
b101100000100001110001101100010100 B
b0 C
1(
b10110000010000111000110110001010011010101110111110100011011000001111000111000011110100100110100100010111111011111101100111101111100001000101000101101000110110000110110001001100100011100100100100110111111000000010101110111100110101110000100000101100000010011 '
#890000
0!
#895000
1!
0(
#900000
0!
#905000
1!
b110011011110000111010111110100011111001011100001001011000100001001000111111110001011110011100110111001010110001110100100010000001111001001110111000000110111110110000001001011011110101100110011101000001111010010100001001110010100010111011000100110001100001 #
b1001101101000010101000011010000101110001011111110000110100111111110011011100011101110011111101011010010100111110000001111100111100001011000101011110011100011001101010111011010110011000101011110110011101100101110110110010000000110100000110111101111110101000 $
1%
#910000
0!
#915000
1!
b10100010111011000100110001100001 +
b11010000011110100101000010011100 ,
b11000000100101101111010110011001 -
b1111001001110111000000110111110 .
b1110010101100011101001000100000 /
b100011111111000101111001110011 0
b11111001011100001001011000100001 1
b1100110111100001110101111101000 2
b110100000110111101111110101000 3
b1100111011001011101101100100000 4
b10101011101101011001100010101111 5
b1011000101011110011100011001 6
b10100101001111100000011111001111 7
b11001101110001110111001111110101 8
b1110001011111110000110100111111 9
b10011011010000101010000110100001 :
0D
0%
1&
#920000
0!
#925000
1!
b11010111000010000010110000001001 ;
b1 C
b10110000010000111000110110001010011010101110111110100011011000001111000111000011110100100110100100010111111011111101100111101111100001000101000101101000110110000110110001001100100011100100100100110111111000000010101110111100111010111000010000010110000001001 '
0&
#930000
0!
#935000
1!
b110111111000000010101110111100 <
1D
b10 C
b10110000010000111000110110001010011010101110111110100011011000001111000111000011110100100110100100010111111011111101100111101111100001000101000101101000110110000110110001001100100011100100100100011011111100000001010111011110011010111000010000010110000001001 '
#940000
0!
#945000
1!
b1101100010011001000111001001001 =
b11 C
b10110000010000111000110110001010011010101110111110100011011000001111000111000011110100100110100100010111111011111101100111101111100001000101000101101000110110000011011000100110010001110010010010011011111100000001010111011110011010111000010000010110000001001 '
#950000
0!
#955000
1!
b10000100010100010110100011011000 >
0D
b100 C
b10110000010000111000110110001010011010101110111110100011011000001111000111000011110100100110100100010111111011111101100111101111110000100010100010110100011011000011011000100110010001110010010010011011111100000001010111011110011010111000010000010110000001001 '
#960000
0!
#965000
1!
b10111111011111101100111101111 ?
1D
b101 C
b10110000010000111000110110001010011010101110111110100011011000001111000111000011110100100110100100001011111101111110110011110111110000100010100010110100011011000011011000100110010001110010010010011011111100000001010111011110011010111000010000010110000001001 '
#970000
0!
#975000
1!
b11110001110000111101001001101001 @
0D
b110 C
b10110000010000111000110110001010011010101110111110100011011000001111100011100001111010010011010010001011111101111110110011110111110000100010100010110100011011000011011000100110010001110010010010011011111100000001010111011110011010111000010000010110000001001 '
#980000
0!
#985000
1!
b1101010111011111010001101100000 A
1D
b111 C
b10110000010000111000110110001010001101010111011111010001101100000111100011100001111010010011010010001011111101111110110011110111110000100010100010110100011011000011011000100110010001110010010010011011111100000001010111011110011010111000010000010110000001001 '
#990000
0!
#995000
1!
b100000010001100111000110110001010 B
b0 C
1(
b10000001000110011100011011000101001101010111011111010001101100000111100011100001111010010011010010001011111101111110110011110111110000100010100010110100011011000011011000100110010001110010010010011011111100000001010111011110011010111000010000010110000001001 '
#1000000
0!
#1005000
1!
0(
#1010000
0!
#1015000
1!
b1110000101101000011101011111010001111100101110000100101100010000100100011111111000101111001110011011100101011000111010010001000000111100100111011100000011011111011000000100101101111010110011001110100000111101001010000100111001010001011101100010011000110000 #
b100110110100001010100001101000010111000101111111000011010011111111001101110001110111001111110101101001010011111000000111110011110000101100010101111001110001100110101011101101011001100010101111011001110110010111011011001000000011010000011011110111111010100 $
1%
#1020000
0!
#1025000
1!
b1010001011101100010011000110000 +
b11101000001111010010100001001110 ,
b1100000010010110111101011001100 -
b111100100111011100000011011111 .
b10111001010110001110100100010000 /
b10010001111111100010111100111001 0
b1111100101110000100101100010000 1
b11100001011010000111010111110100 2
b11010000011011110111111010100 3
b10110011101100101110110110010000 4
b11010101110110101100110001010111 5
b10000101100010101111001110001100 6
b11010010100111110000001111100111 7
b11100110111000111011100111111010 8
b10111000101111111000011010011111 9
b1001101101000010101000011010000 :
0D
0%
1&
#1030000
0!
#1035000
1!
b1101011100001000001011000000100 ;
b1 C
b10000001000110011100011011000101001101010111011111010001101100000111100011100001111010010011010010001011111101111110110011110111110000100010100010110100011011000011011000100110010001110010010010011011111100000001010111011110001101011100001000001011000000100 '
0&
#1040000
0!
#1045000
1!
b10011011111100000001010111011110 <
1D
b10 C
b10000001000110011100011011000101001101010111011111010001101100000111100011100001111010010011010010001011111101111110110011110111110000100010100010110100011011000011011000100110010001110010010011001101111110000000101011101111001101011100001000001011000000100 '
#1050000
0!
