build/enc-par/build-2019-11-02_17-04/mpadd.vcd
$date
    Nov  2, 2019  17:01:18
$end
$version
    TOOL:	xmsim	19.03-s013
$end
$timescale
    10 ps
$end

$scope module mpadd_tb $end

$scope module u_DUT $end
$var wire      1 !    CLK  $end
$var wire      1 "    RST_N  $end
$var wire     256 #    a_in [255:0] $end
$var wire     256 $    b_in [255:0] $end
$var wire      1 %    write  $end
$var wire      1 &    start  $end
$var wire     257 '    s_out [256:0] $end
$var reg       1 (    ready $end
$var reg      257 )    sum [256:0] $end
$var reg      256 *    a [255:0] $end
$var reg      256 +    b [255:0] $end
$upscope $end

$upscope $end

$enddefinitions $end
$dumpvars
0!
0"
bx #
bx $
0%
0&
bx '
x(
bx )
bx *
bx +
$end
#5000
1!
0(
b110101100010111110100011111001011100001001011000100001001000111111110001011110011100110111001010110001110100100010000001111001001110111000000110111110110000001001011011110101100110011101000001111010010100001001110010100010111011000100110001100001010010110 #
b100111111100011010000101110001011111110000110100111111110011011100011101110011111101011010010100111110000001111100111100001011000101011110011100011001101010111011010110011000101011110110011101100101110110110010000000110100000110111101111110101000111110101 $
#10000
0!
1"
#15000
1!
#20000
0!
#25000
1!
b11010110001011111010001111100101110000100101100010000100100011111111000101111001110011011100101011000111010010001000000111100100111011100000011011111011000000100101101111010110011001110100000111101001010000100111001010001011101100010011000110000101001011 #
b1111010111100001101000010111000101111111000011010011111111001101110001110111001111110101101001010011111000000111110011110000101100010101111001110001100110101011101101011001100010101111011001110110010111011011001000000011010000011011110111111010100011111010 $
1%
#30000
0!
#35000
1!
b11010110001011111010001111100101110000100101100010000100100011111111000101111001110011011100101011000111010010001000000111100100111011100000011011111011000000100101101111010110011001110100000111101001010000100111001010001011101100010011000110000101001011 *
b1111010111100001101000010111000101111111000011010011111111001101110001110111001111110101101001010011111000000111110011110000101100010101111001110001100110101011101101011001100010101111011001110110010111011011001000000011010000011011110111111010100011111010 +
0%
1&
#40000
0!
#45000
1!
b10010101101101101100010100110101011101111101000110110000011110001110000111101001001101001000101111110111111011001111011111000010001010001011010001101100001101100010011001000111001001001001101111110000000101011101111001101011100001000001011000000101001000101 )
1(
b10010101101101101100010100110101011101111101000110110000011110001110000111101001001101001000101111110111111011001111011111000010001010001011010001101100001101100010011001000111001001001001101111110000000101011101111001101011100001000001011000000101001000101 '
0&
#50000
0!
#55000
1!
0(
#60000
0!
#65000
1!
b1100100011010101111101000111110010111000010010110001000010010001111111100010111100111001101110010101100011101001000100000011110010011101110000001101111101100000010010110111101011001100111010000011110100101000010011100101000101110110001001100011000010100101 #
b111101011110000110100001011100010111111100001101001111111100110111000111011100111111010110100101001111100000011111001111000010110001010111100111000110011010101110110101100110001010111101100111011001011101101100100000001101000001101111011111101010001111101 $
1%
#70000
0!
#75000
1!
b1100100011010101111101000111110010111000010010110001000010010001111111100010111100111001101110010101100011101001000100000011110010011101110000001101111101100000010010110111101011001100111010000011110100101000010011100101000101110110001001100011000010100101 *
b111101011110000110100001011100010111111100001101001111111100110111000111011100111111010110100101001111100000011111001111000010110001010111100111000110011010101110110101100110001010111101100111011001011101101100100000001101000001101111011111101010001111101 +
0%
1&
#80000
0!
#85000
1!
b10100001111000110110001010011010101110111110100011011000001111000111000011110100100110100100010111111011111101100111101111100001000101000101101000110110000110110001001100100011100100100100110111111000000010101110111100110101110000100000101100000010100100010 )
1(
b10100001111000110110001010011010101110111110100011011000001111000111000011110100100110100100010111111011111101100111101111100001000101000101101000110110000110110001001100100011100100100100110111111000000010101110111100110101110000100000101100000010100100010 '
0&
#90000
0!
#95000
1!
0(
#100000
0!
#105000
1!
b1011011001111010111110100011111001011100001001011000100001001000111111110001011110011100110111001010110001110100100010000001111001001110111000000110111110110000001001011011110101100110011101000001111010010100001001110010100010111011000100110001100001010010 #
b1110111101101000011010000101110001011111110000110100111111110011011100011101110011111101011010010100111110000001111100111100001011000101011110011100011001101010111011010110011000101011110110011101100101110110110010000000110100000110111101111110101000111110 $
1%
#110000
0!
#115000
1!
b1011011001111010111110100011111001011100001001011000100001001000111111110001011110011100110111001010110001110100100010000001111001001110111000000110111110110000001001011011110101100110011101000001111010010100001001110010100010111011000100110001100001010010 *
b1110111101101000011010000101110001011111110000110100111111110011011100011101110011111101011010010100111110000001111100111100001011000101011110011100011001101010111011010110011000101011110110011101100101110110110010000000110100000110111101111110101000111110 +
0%
1&
#120000
0!
#125000
1!
b11010010111100011011000101001101010111011111010001101100000111100011100001111010010011010010001011111101111110110011110111110000100010100010110100011011000011011000100110010001110010010010011011111100000001010111011110011010111000010000010110000001010010000 )
1(
b11010010111100011011000101001101010111011111010001101100000111100011100001111010010011010010001011111101111110110011110111110000100010100010110100011011000011011000100110010001110010010010011011111100000001010111011110011010111000010000010110000001010010000 '
0&
#130000
0!
#135000
1!
0(
#140000
0!
#145000
1!
b101101100111101011111010001111100101110000100101100010000100100011111111000101111001110011011100101011000111010010001000000111100100111011100000011011111011000000100101101111010110011001110100000111101001010000100111001010001011101100010011000110000101001 #
b111011110110100001101000010111000101111111000011010011111111001101110001110111001111110101101001010011111000000111110011110000101100010101111001110001100110101011101101011001100010101111011001110110010111011011001000000011010000011011110111111010100011111 $
1%
#150000
0!
#155000
1!
b101101100111101011111010001111100101110000100101100010000100100011111111000101111001110011011100101011000111010010001000000111100100111011100000011011111011000000100101101111010110011001110100000111101001010000100111001010001011101100010011000110000101001 *
b111011110110100001101000010111000101111111000011010011111111001101110001110111001111110101101001010011111000000111110011110000101100010101111001110001100110101011101101011001100010101111011001110110010111011011001000000011010000011011110111111010100011111 +
0%
1&
#160000
0!
#165000
1!
b1101001011110001101100010100110101011101111101000110110000011110001110000111101001001101001000101111110111111011001111011111000010001010001011010001101100001101100010011001000111001001001001101111110000000101011101111001101011100001000001011000000101001000 )
1(
b1101001011110001101100010100110101011101111101000110110000011110001110000111101001001101001000101111110111111011001111011111000010001010001011010001101100001101100010011001000111001001001001101111110000000101011101111001101011100001000001011000000101001000 '
0&
#170000
0!
#175000
1!
0(
#180000
0!
#185000
1!
b1111111110001110101111101000111110010111000010010110001000010010001111111100010111100111001101110010101100011101001000100000011110010011101110000001101111101100000010010110111101011001100111010000011110100101000010011100101000101110110001001100011000010100 #
b1110100111001010000110100001011100010111111100001101001111111100110111000111011100111111010110100101001111100000011111001111000010110001010111100111000110011010101110110101100110001010111101100111011001011101101100100000001101000001101111011111101010001111 $
1%
#190000
0!
#195000
1!
b1111111110001110101111101000111110010111000010010110001000010010001111111100010111100111001101110010101100011101001000100000011110010011101110000001101111101100000010010110111101011001100111010000011110100101000010011100101000101110110001001100011000010100 *
b1110100111001010000110100001011100010111111100001101001111111100110111000111011100111111010110100101001111100000011111001111000010110001010111100111000110011010101110110101100110001010111101100111011001011101101100100000001101000001101111011111101010001111 +
0%
1&
#200000
0!
#205000
1!
b11110100101011000110110001010011010101110111110100011011000001111000111000011110100100110100100010111111011111101100111101111100001000101000101101000110110000110110001001100100011100100100100110111111000000010101110111100110101110000100000101100000010100011 )
1(
b11110100101011000110110001010011010101110111110100011011000001111000111000011110100100110100100010111111011111101100111101111100001000101000101101000110110000110110001001100100011100100100100110111111000000010101110111100110101110000100000101100000010100011 '
0&
#210000
0!
#215000
1!
0(
#220000
0!
#225000
1!
b111111111000111010111110100011111001011100001001011000100001001000111111110001011110011100110111001010110001110100100010000001111001001110111000000110111110110000001001011011110101100110011101000001111010010100001001110010100010111011000100110001100001010 #
b1010011011110101000011010000101110001011111110000110100111111110011011100011101110011111101011010010100111110000001111100111100001011000101011110011100011001101010111011010110011000101011110110011101100101110110110010000000110100000110111101111110101000111 $
1%
#230000
0!
#235000
1!
b111111111000111010111110100011111001011100001001011000100001001000111111110001011110011100110111001010110001110100100010000001111001001110111000000110111110110000001001011011110101100110011101000001111010010100001001110010100010111011000100110001100001010 *
b1010011011110101000011010000101110001011111110000110100111111110011011100011101110011111101011010010100111110000001111100111100001011000101011110011100011001101010111011010110011000101011110110011101100101110110110010000000110100000110111101111110101000111 +
0%
1&
#240000
0!
#245000
1!
b10010011010111100011011000101001101010111011111010001101100000111100011100001111010010011010010001011111101111110110011110111110000100010100010110100011011000011011000100110010001110010010010011011111100000001010111011110011010111000010000010110000001010001 )
1(
b10010011010111100011011000101001101010111011111010001101100000111100011100001111010010011010010001011111101111110110011110111110000100010100010110100011011000011011000100110010001110010010010011011111100000001010111011110011010111000010000010110000001010001 '
0&
#250000
0!
#255000
1!
0(
#260000
0!
#265000
1!
b11111111100011101011111010001111100101110000100101100010000100100011111111000101111001110011011100101011000111010010001000000111100100111011100000011011111011000000100101101111010110011001110100000111101001010000100111001010001011101100010011000110000101 #
b1000000101101010100001101000010111000101111111000011010011111111001101110001110111001111110101101001010011111000000111110011110000101100010101111001110001100110101011101101011001100010101111011001110110010111011011001000000011010000011011110111111010100011 $
1%
#270000
0!
#275000
1!
b11111111100011101011111010001111100101110000100101100010000100100011111111000101111001110011011100101011000111010010001000000111100100111011100000011011111011000000100101101111010110011001110100000111101001010000100111001010001011101100010011000110000101 *
b1000000101101010100001101000010111000101111111000011010011111111001101110001110111001111110101101001010011111000000111110011110000101100010101111001110001100110101011101101011001100010101111011001110110010111011011001000000011010000011011110111111010100011 +
0%
1&
#280000
0!
#285000
1!
b1100000101001110001101100010100110101011101111101000110110000011110001110000111101001001101001000101111110111111011001111011111000010001010001011010001101100001101100010011001000111001001001001101111110000000101011101111001101011100001000001011000000101000 )
1(
b1100000101001110001101100010100110101011101111101000110110000011110001110000111101001001101001000101111110111111011001111011111000010001010001011010001101100001101100010011001000111001001001001101111110000000101011101111001101011100001000001011000000101000 '
0&
#290000
0!
#295000
1!
0(
#300000
0!
#305000
1!
b1100110111100001110101111101000111110010111000010010110001000010010001111111100010111100111001101110010101100011101001000100000011110010011101110000001101111101100000010010110111101011001100111010000011110100101000010011100101000101110110001001100011000010 #
b1001001010100101010000110100001011100010111111100001101001111111100110111000111011100111111010110100101001111100000011111001111000010110001010111100111000110011010101110110101100110001010111101100111011001011101101100100000001101000001101111011111101010001 $
1%
#310000
0!
#315000
1!
b1100110111100001110101111101000111110010111000010010110001000010010001111111100010111100111001101110010101100011101001000100000011110010011101110000001101111101100000010010110111101011001100111010000011110100101000010011100101000101110110001001100011000010 *
b1001001010100101010000110100001011100010111111100001101001111111100110111000111011100111111010110100101001111100000011111001111000010110001010111100111000110011010101110110101100110001010111101100111011001011101101100100000001101000001101111011111101010001 +
0%
1&
#320000
0!
#325000
1!
b10110000010000111000110110001010011010101110111110100011011000001111000111000011110100100110100100010111111011111101100111101111100001000101000101101000110110000110110001001100100011100100100100110111111000000010101110111100110101110000100000101100000010011 )
1(
b10110000010000111000110110001010011010101110111110100011011000001111000111000011110100100110100100010111111011111101100111101111100001000101000101101000110110000110110001001100100011100100100100110111111000000010101110111100110101110000100000101100000010011 '
0&
#330000
0!
#335000
1!
0(
#340000
0!
#345000
1!
b110011011110000111010111110100011111001011100001001011000100001001000111111110001011110011100110111001010110001110100100010000001111001001110111000000110111110110000001001011011110101100110011101000001111010010100001001110010100010111011000100110001100001 #
b1001101101000010101000011010000101110001011111110000110100111111110011011100011101110011111101011010010100111110000001111100111100001011000101011110011100011001101010111011010110011000101011110110011101100101110110110010000000110100000110111101111110101000 $
1%
#350000
0!
#355000
1!
b110011011110000111010111110100011111001011100001001011000100001001000111111110001011110011100110111001010110001110100100010000001111001001110111000000110111110110000001001011011110101100110011101000001111010010100001001110010100010111011000100110001100001 *
b1001101101000010101000011010000101110001011111110000110100111111110011011100011101110011111101011010010100111110000001111100111100001011000101011110011100011001101010111011010110011000101011110110011101100101110110110010000000110100000110111101111110101000 +
0%
1&
#360000
0!
#365000
1!
b10000001000110011100011011000101001101010111011111010001101100000111100011100001111010010011010010001011111101111110110011110111110000100010100010110100011011000011011000100110010001110010010010011011111100000001010111011110011010111000010000010110000001001 )
1(
b10000001000110011100011011000101001101010111011111010001101100000111100011100001111010010011010010001011111101111110110011110111110000100010100010110100011011000011011000100110010001110010010010011011111100000001010111011110011010111000010000010110000001001 '
0&
#370000
0!
#375000
1!
0(
#380000
0!
#385000
1!
b1110000101101000011101011111010001111100101110000100101100010000100100011111111000101111001110011011100101011000111010010001000000111100100111011100000011011111011000000100101101111010110011001110100000111101001010000100111001010001011101100010011000110000 #
b100110110100001010100001101000010111000101111111000011010011111111001101110001110111001111110101101001010011111000000111110011110000101100010101111001110001100110101011101101011001100010101111011001110110010111011011001000000011010000011011110111111010100 $
1%
#390000
0!
#395000
1!
b1110000101101000011101011111010001111100101110000100101100010000100100011111111000101111001110011011100101011000111010010001000000111100100111011100000011011111011000000100101101111010110011001110100000111101001010000100111001010001011101100010011000110000 *
b100110110100001010100001101000010111000101111111000011010011111111001101110001110111001111110101101001010011111000000111110011110000101100010101111001110001100110101011101101011001100010101111011001110110010111011011001000000011010000011011110111111010100 +
0%
1&
#400000
0!
#405000
1!
b10010111100001001110001101100010100110101011101111101000110110000011110001110000111101001001101001000101111110111111011001111011111000010001010001011010001101100001101100010011001000111001001001001101111110000000101011101111001101011100001000001011000000100 )
1(
b10010111100001001110001101100010100110101011101111101000110110000011110001110000111101001001101001000101111110111111011001111011111000010001010001011010001101100001101100010011001000111001001001001101111110000000101011101111001101011100001000001011000000100 '
0&
#410000
0!
#415000
1!
0(
#420000
0!
#425000
1!
b111000010110100001110101111101000111110010111000010010110001000010010001111111100010111100111001101110010101100011101001000100000011110010011101110000001101111101100000010010110111101011001100111010000011110100101000010011100101000101110110001001100011000 #
b10011011010000101010000110100001011100010111111100001101001111111100110111000111011100111111010110100101001111100000011111001111000010110001010111100111000110011010101110110101100110001010111101100111011001011101101100100000001101000001101111011111101010 $
1%
#430000
0!
#435000
1!
b111000010110100001110101111101000111110010111000010010110001000010010001111111100010111100111001101110010101100011101001000100000011110010011101110000001101111101100000010010110111101011001100111010000011110100101000010011100101000101110110001001100011000 *
b10011011010000101010000110100001011100010111111100001101001111111100110111000111011100111111010110100101001111100000011111001111000010110001010111100111000110011010101110110101100110001010111101100111011001011101101100100000001101000001101111011111101010 +
0%
1&
#440000
0!
#445000
1!
b1001011110000100111000110110001010011010101110111110100011011000001111000111000011110100100110100100010111111011111101100111101111100001000101000101101000110110000110110001001100100011100100100100110111111000000010101110111100110101110000100000101100000010 )
1(
b1001011110000100111000110110001010011010101110111110100011011000001111000111000011110100100110100100010111111011111101100111101111100001000101000101101000110110000110110001001100100011100100100100110111111000000010101110111100110101110000100000101100000010 '
0&
#450000
0!
#455000
1!
0(
#460000
0!
#465000
1!
b11100001011010000111010111110100011111001011100001001011000100001001000111111110001011110011100110111001010110001110100100010000001111001001110111000000110111110110000001001011011110101100110011101000001111010010100001001110010100010111011000100110001100 #
b1001101101000010101000011010000101110001011111110000110100111111110011011100011101110011111101011010010100111110000001111100111100001011000101011110011100011001101010111011010110011000101011110110011101100101110110110010000000110100000110111101111110101 $
1%
#470000
0!
#475000
1!
b11100001011010000111010111110100011111001011100001001011000100001001000111111110001011110011100110111001010110001110100100010000001111001001110111000000110111110110000001001011011110101100110011101000001111010010100001001110010100010111011000100110001100 *
b1001101101000010101000011010000101110001011111110000110100111111110011011100011101110011111101011010010100111110000001111100111100001011000101011110011100011001101010111011010110011000101011110110011101100101110110110010000000110100000110111101111110101 +
0%
1&
#480000
0!
#485000
1!
b100101111000010011100011011000101001101010111011111010001101100000111100011100001111010010011010010001011111101111110110011110111110000100010100010110100011011000011011000100110010001110010010010011011111100000001010111011110011010111000010000010110000001 )
1(
b100101111000010011100011011000101001101010111011111010001101100000111100011100001111010010011010010001011111101111110110011110111110000100010100010110100011011000011011000100110010001110010010010011011111100000001010111011110011010111000010000010110000001 '
0&
#490000
0!
#495000
1!
0(
#500000
0!
#505000
1!
b1110000101101000011101011111010001111100101110000100101100010000100100011111111000101111001110011011100101011000111010010001000000111100100111011100000011011111011000000100101101111010110011001110100000111101001010000100111001010001011101100010011000110 #
b1101101110100100001010100001101000010111000101111111000011010011111111001101110001110111001111110101101001010011111000000111110011110000101100010101111001110001100110101011101101011001100010101111011001110110010111011011001000000011010000011011110111111010 $
1%
#510000
0!
#515000
1!
b1110000101101000011101011111010001111100101110000100101100010000100100011111111000101111001110011011100101011000111010010001000000111100100111011100000011011111011000000100101101111010110011001110100000111101001010000100111001010001011101100010011000110 *
b1101101110100100001010100001101000010111000101111111000011010011111111001101110001110111001111110101101001010011111000000111110011110000101100010101111001110001100110101011101101011001100010101111011001110110010111011011001000000011010000011011110111111010 +
0%
1&
#520000
0!
#525000
1!
b1111011111010001001110001101100010100110101011101111101000110110000011110001110000111101001001101001000101111110111111011001111011111000010001010001011010001101100001101100010011001000111001001001001101111110000000101011101111001101011100001000001011000000 )
1(
b1111011111010001001110001101100010100110101011101111101000110110000011110001110000111101001001101001000101111110111111011001111011111000010001010001011010001101100001101100010011001000111001001001001101111110000000101011101111001101011100001000001011000000 '
0&
#530000
0!
#535000
1!
0(
#540000
0!
#545000
1!
b111000010110100001110101111101000111110010111000010010110001000010010001111111100010111100111001101110010101100011101001000100000011110010011101110000001101111101100000010010110111101011001100111010000011110100101000010011100101000101110110001001100011 #
b110110111010010000101010000110100001011100010111111100001101001111111100110111000111011100111111010110100101001111100000011111001111000010110001010111100111000110011010101110110101100110001010111101100111011001011101101100100000001101000001101111011111101 $
1%
#550000
0!
#555000
1!
b111000010110100001110101111101000111110010111000010010110001000010010001111111100010111100111001101110010101100011101001000100000011110010011101110000001101111101100000010010110111101011001100111010000011110100101000010011100101000101110110001001100011 *
b110110111010010000101010000110100001011100010111111100001101001111111100110111000111011100111111010110100101001111100000011111001111000010110001010111100111000110011010101110110101100110001010111101100111011001011101101100100000001101000001101111011111101 +
0%
1&
#560000
0!
#565000
1!
b111101111101000100111000110110001010011010101110111110100011011000001111000111000011110100100110100100010111111011111101100111101111100001000101000101101000110110000110110001001100100011100100100100110111111000000010101110111100110101110000100000101100000 )
1(
b111101111101000100111000110110001010011010101110111110100011011000001111000111000011110100100110100100010111111011111101100111101111100001000101000101101000110110000110110001001100100011100100100100110111111000000010101110111100110101110000100000101100000 '
0&
#570000
0!
#575000
1!
0(
#580000
0!
#585000
1!
b1101010100011011010000111010111110100011111001011100001001011000100001001000111111110001011110011100110111001010110001110100100010000001111001001110111000000110111110110000001001011011110101100110011101000001111010010100001001110010100010111011000100110001 #
b1110010011111001000010101000011010000101110001011111110000110100111111110011011100011101110011111101011010010100111110000001111100111100001011000101011110011100011001101010111011010110011000101011110110011101100101110110110010000000110100000110111101111110 $
1%
#590000
0!
#595000
1!
b1101010100011011010000111010111110100011111001011100001001011000100001001000111111110001011110011100110111001010110001110100100010000001111001001110111000000110111110110000001001011011110101100110011101000001111010010100001001110010100010111011000100110001 *
b1110010011111001000010101000011010000101110001011111110000110100111111110011011100011101110011111101011010010100111110000001111100111100001011000101011110011100011001101010111011010110011000101011110110011101100101110110110010000000110100000110111101111110 +
0%
1&
#600000
0!
#605000
1!
b11011101000010100010011100011011000101001101010111011111010001101100000111100011100001111010010011010010001011111101111110110011110111110000100010100010110100011011000011011000100110010001110010010010011011111100000001010111011110011010111000010000010101111 )
1(
b11011101000010100010011100011011000101001101010111011111010001101100000111100011100001111010010011010010001011111101111110110011110111110000100010100010110100011011000011011000100110010001110010010010011011111100000001010111011110011010111000010000010101111 '
0&
#610000
0!
#615000
1!
0(
#620000
0!
#625000
1!
b1011100010011101101000011101011111010001111100101110000100101100010000100100011111111000101111001110011011100101011000111010010001000000111100100111011100000011011111011000000100101101111010110011001110100000111101001010000100111001010001011101100010011000 #
b111001001111100100001010100001101000010111000101111111000011010011111111001101110001110111001111110101101001010011111000000111110011110000101100010101111001110001100110101011101101011001100010101111011001110110010111011011001000000011010000011011110111111 $
1%
#630000
0!
#635000
1!
b1011100010011101101000011101011111010001111100101110000100101100010000100100011111111000101111001110011011100101011000111010010001000000111100100111011100000011011111011000000100101101111010110011001110100000111101001010000100111001010001011101100010011000 *
b111001001111100100001010100001101000010111000101111111000011010011111111001101110001110111001111110101101001010011111000000111110011110000101100010101111001110001100110101011101101011001100010101111011001110110010111011011001000000011010000011011110111111 +
0%
1&
#640000
0!
#645000
1!
b10010101100011010001001110001101100010100110101011101111101000110110000011110001110000111101001001101001000101111110111111011001111011111000010001010001011010001101100001101100010011001000111001001001001101111110000000101011101111001101011100001000001010111 )
1(
b10010101100011010001001110001101100010100110101011101111101000110110000011110001110000111101001001101001000101111110111111011001111011111000010001010001011010001101100001101100010011001000111001001001001101111110000000101011101111001101011100001000001010111 '
0&
#650000
0!
#655000
1!
0(
#660000
0!
#665000
1!
b101110001001110110100001110101111101000111110010111000010010110001000010010001111111100010111100111001101110010101100011101001000100000011110010011101110000001101111101100000010010110111101011001100111010000011110100101000010011100101000101110110001001100 #
b1110101100101110010000101010000110100001011100010111111100001101001111111100110111000111011100111111010110100101001111100000011111001111000010110001010111100111000110011010101110110101100110001010111101100111011001011101101100100000001101000001101111011111 $
1%
#670000
0!
#675000
1!
b101110001001110110100001110101111101000111110010111000010010110001000010010001111111100010111100111001101110010101100011101001000100000011110010011101110000001101111101100000010010110111101011001100111010000011110100101000010011100101000101110110001001100 *
b1110101100101110010000101010000110100001011100010111111100001101001111111100110111000111011100111111010110100101001111100000011111001111000010110001010111100111000110011010101110110101100110001010111101100111011001011101101100100000001101000001101111011111 +
0%
1&
#680000
0!
#685000
1!
b10100011101111101000100111000110110001010011010101110111110100011011000001111000111000011110100100110100100010111111011111101100111101111100001000101000101101000110110000110110001001100100011100100100100110111111000000010101110111100110101110000100000101011 )
1(
b10100011101111101000100111000110110001010011010101110111110100011011000001111000111000011110100100110100100010111111011111101100111101111100001000101000101101000110110000110110001001100100011100100100100110111111000000010101110111100110101110000100000101011 '
0&
#690000
0!
#695000
1!
0(
#700000
0!
#705000
1!
b10111000100111011010000111010111110100011111001011100001001011000100001001000111111110001011110011100110111001010110001110100100010000001111001001110111000000110111110110000001001011011110101100110011101000001111010010100001001110010100010111011000100110 #
b1010011110000111001000010101000011010000101110001011111110000110100111111110011011100011101110011111101011010010100111110000001111100111100001011000101011110011100011001101010111011010110011000101011110110011101100101110110110010000000110100000110111101111 $
1%
#710000
0!
#715000
1!
b10111000100111011010000111010111110100011111001011100001001011000100001001000111111110001011110011100110111001010110001110100100010000001111001001110111000000110111110110000001001011011110101100110011101000001111010010100001001110010100010111011000100110 *
b1010011110000111001000010101000011010000101110001011111110000110100111111110011011100011101110011111101011010010100111110000001111100111100001011000101011110011100011001101010111011010110011000101011110110011101100101110110110010000000110100000110111101111 +
0%
1&
#720000
0!
#725000
1!
b1101010110101110100010011100011011000101001101010111011111010001101100000111100011100001111010010011010010001011111101111110110011110111110000100010100010110100011011000011011000100110010001110010010010011011111100000001010111011110011010111000010000010101 )
1(
b1101010110101110100010011100011011000101001101010111011111010001101100000111100011100001111010010011010010001011111101111110110011110111110000100010100010110100011011000011011000100110010001110010010010011011111100000001010111011110011010111000010000010101 '
0&
#730000
0!
#735000
1!
0(
#740000
0!
#745000
1!
b1011100010011101101000011101011111010001111100101110000100101100010000100100011111111000101111001110011011100101011000111010010001000000111100100111011100000011011111011000000100101101111010110011001110100000111101001010000100111001010001011101100010011 #
b1000000111010011100100001010100001101000010111000101111111000011010011111111001101110001110111001111110101101001010011111000000111110011110000101100010101111001110001100110101011101101011001100010101111011001110110010111011011001000000011010000011011110111 $
1%
#750000
0!
#755000
1!
b1011100010011101101000011101011111010001111100101110000100101100010000100100011111111000101111001110011011100101011000111010010001000000111100100111011100000011011111011000000100101101111010110011001110100000111101001010000100111001010001011101100010011 *
b1000000111010011100100001010100001101000010111000101111111000011010011111111001101110001110111001111110101101001010011111000000111110011110000101100010101111001110001100110101011101101011001100010101111011001110110010111011011001000000011010000011011110111 +
0%
1&
#760000
0!
#765000
1!
b1001100011100111010001001110001101100010100110101011101111101000110110000011110001110000111101001001101001000101111110111111011001111011111000010001010001011010001101100001101100010011001000111001001001001101111110000000101011101111001101011100001000001010 )
1(
b1001100011100111010001001110001101100010100110101011101111101000110110000011110001110000111101001001101001000101111110111111011001111011111000010001010001011010001101100001101100010011001000111001001001001101111110000000101011101111001101011100001000001010 '
0&
#770000
0!
#775000
1!
0(
#780000
0!
#785000
1!
b1101100110011001110110100001110101111101000111110010111000010010110001000010010001111111100010111100111001101110010101100011101001000100000011110010011101110000001101111101100000010010110111101011001100111010000011110100101000010011100101000101110110001001 #
b1001001011111001110010000101010000110100001011100010111111100001101001111111100110111000111011100111111010110100101001111100000011111001111000010110001010111100111000110011010101110110101100110001010111101100111011001011101101100100000001101000001101111011 $
1%
#790000
0!
#795000
1!
b1101100110011001110110100001110101111101000111110010111000010010110001000010010001111111100010111100111001101110010101100011101001000100000011110010011101110000001101111101100000010010110111101011001100111010000011110100101000010011100101000101110110001001 *
b1001001011111001110010000101010000110100001011100010111111100001101001111111100110111000111011100111111010110100101001111100000011111001111000010110001010111100111000110011010101110110101100110001010111101100111011001011101101100100000001101000001101111011 +
0%
1&
#800000
0!
#805000
1!
b10110110010010011101000100111000110110001010011010101110111110100011011000001111000111000011110100100110100100010111111011111101100111101111100001000101000101101000110110000110110001001100100011100100100100110111111000000010101110111100110101110000100000100 )
1(
b10110110010010011101000100111000110110001010011010101110111110100011011000001111000111000011110100100110100100010111111011111101100111101111100001000101000101101000110110000110110001001100100011100100100100110111111000000010101110111100110101110000100000100 '
0&
#810000
0!
#815000
1!
0(
#820000
0!
#825000
1!
b1011111011011100111011010000111010111110100011111001011100001001011000100001001000111111110001011110011100110111001010110001110100100010000001111001001110111000000110111110110000001001011011110101100110011101000001111010010100001001110010100010111011000100 #
b1001101101101100111001000010101000011010000101110001011111110000110100111111110011011100011101110011111101011010010100111110000001111100111100001011000101011110011100011001101010111011010110011000101011110110011101100101110110110010000000110100000110111101 $
1%
#830000
0!
#835000
1!
b1011111011011100111011010000111010111110100011111001011100001001011000100001001000111111110001011110011100110111001010110001110100100010000001111001001110111000000110111110110000001001011011110101100110011101000001111010010100001001110010100010111011000100 *
b1001101101101100111001000010101000011010000101110001011111110000110100111111110011011100011101110011111101011010010100111110000001111100111100001011000101011110011100011001101010111011010110011000101011110110011101100101110110110010000000110100000110111101 +
0%
1&
#840000
0!
#845000
1!
b10101101001001001110100010011100011011000101001101010111011111010001101100000111100011100001111010010011010010001011111101111110110011110111110000100010100010110100011011000011011000100110010001110010010010011011111100000001010111011110011010111000010000001 )
1(
b10101101001001001110100010011100011011000101001101010111011111010001101100000111100011100001111010010011010010001011111101111110110011110111110000100010100010110100011011000011011000100110010001110010010010011011111100000001010111011110011010111000010000001 '
0&
#850000
0!
#855000
1!
0(
#860000
0!
#865000
1!
b101111101101110011101101000011101011111010001111100101110000100101100010000100100011111111000101111001110011011100101011000111010010001000000111100100111011100000011011111011000000100101101111010110011001110100000111101001010000100111001010001011101100010 #
b1001111110100110011100100001010100001101000010111000101111111000011010011111111001101110001110111001111110101101001010011111000000111110011110000101100010101111001110001100110101011101101011001100010101111011001110110010111011011001000000011010000011011110 $
1%
#870000
0!
#875000
1!
b101111101101110011101101000011101011111010001111100101110000100101100010000100100011111111000101111001110011011100101011000111010010001000000111100100111011100000011011111011000000100101101111010110011001110100000111101001010000100111001010001011101100010 *
b1001111110100110011100100001010100001101000010111000101111111000011010011111111001101110001110111001111110101101001010011111000000111110011110000101100010101111001110001100110101011101101011001100010101111011001110110010111011011001000000011010000011011110 +
0%
1&
#880000
0!
#885000
1!
b1111111100010100111010001001110001101100010100110101011101111101000110110000011110001110000111101001001101001000101111110111111011001111011111000010001010001011010001101100001101100010011001000111001001001001101111110000000101011101111001101011100001000000 )
1(
b1111111100010100111010001001110001101100010100110101011101111101000110110000011110001110000111101001001101001000101111110111111011001111011111000010001010001011010001101100001101100010011001000111001001001001101111110000000101011101111001101011100001000000 '
0&
#890000
0!
#895000
1!
0(
#900000
0!
#905000
1!
b10111110110111001110110100001110101111101000111110010111000010010110001000010010001111111100010111100111001101110010101100011101001000100000011110010011101110000001101111101100000010010110111101011001100111010000011110100101000010011100101000101110110001 #
b100111111010011001110010000101010000110100001011100010111111100001101001111111100110111000111011100111111010110100101001111100000011111001111000010110001010111100111000110011010101110110101100110001010111101100111011001011101101100100000001101000001101111 $
1%
#910000
0!
#915000
1!
b10111110110111001110110100001110101111101000111110010111000010010110001000010010001111111100010111100111001101110010101100011101001000100000011110010011101110000001101111101100000010010110111101011001100111010000011110100101000010011100101000101110110001 *
b100111111010011001110010000101010000110100001011100010111111100001101001111111100110111000111011100111111010110100101001111100000011111001111000010110001010111100111000110011010101110110101100110001010111101100111011001011101101100100000001101000001101111 +
0%
1&
#920000
0!
#925000
1!
b111111110001010011101000100111000110110001010011010101110111110100011011000001111000111000011110100100110100100010111111011111101100111101111100001000101000101101000110110000110110001001100100011100100100100110111111000000010101110111100110101110000100000 )
1(
b111111110001010011101000100111000110110001010011010101110111110100011011000001111000111000011110100100110100100010111111011111101100111101111100001000101000101101000110110000110110001001100100011100100100100110111111000000010101110111100110101110000100000 '
0&
#930000
0!
#935000
1!
0(
#940000
0!
#945000
1!
b1100010111001011100111011010000111010111110100011111001011100001001011000100001001000111111110001011110011100110111001010110001110100100010000001111001001110111000000110111110110000001001011011110101100110011101000001111010010100001001110010100010111011000 #
b1111010111111001100111001000010101000011010000101110001011111110000110100111111110011011100011101110011111101011010010100111110000001111100111100001011000101011110011100011001101010111011010110011000101011110110011101100101110110110010000000110100000110111 $
1%
#950000
0!
